{
  "project_info": {
    "project_number": "572157091427",
    "firebase_url": "https://waiter-ae8d1.firebaseio.com",
    "project_id": "waiter-ae8d1",
    "storage_bucket": "waiter-ae8d1.appspot.com"
  },
  "client": [
    {
      "client_info": {
        "mobilesdk_app_id": "1:572157091427:android:7247c4f5bc74c491bbe256",
        "android_client_info": {
          "package_name": "com.itglance.restro_waiter"
        }
      },
      "oauth_client": [
        {
          "client_id": "572157091427-5arlv4b2s112hh273qafba0l4l65jgsg.apps.googleusercontent.com",
          "client_type": 1,
          "android_info": {
            "package_name": "com.itglance.restro_waiter",
            "certificate_hash": "766976af2aed700a89de13bedb8db3507dbec433"
          }
        },
        {
          "client_id": "572157091427-l7l77g95ctjnoal5m676lg657jd9cob4.apps.googleusercontent.com",
          "client_type": 3
        }
      ],
      "api_key": [
        {
          "current_key": "AIzaSyAQluwc8sgam8OBYDp7xF9_xPlvChsXuM0"
        }
      ],
      "services": {
        "appinvite_service": {
          "other_platform_oauth_client": [
            {
              "client_id": "572157091427-l7l77g95ctjnoal5m676lg657jd9cob4.apps.googleusercontent.com",
              "client_type": 3
            }
          ]
        }
      }
    }
  ],
  "configuration_version": "1"
}